<?xml version="1.0" encoding="UTF-8" standalone="no"?>
<svg
   xmlns:dc="http://purl.org/dc/elements/1.1/"
   xmlns:cc="http://creativecommons.org/ns#"
   xmlns:rdf="http://www.w3.org/1999/02/22-rdf-syntax-ns#"
   xmlns:svg="http://www.w3.org/2000/svg"
   xmlns="http://www.w3.org/2000/svg"
   xmlns:sodipodi="http://sodipodi.sourceforge.net/DTD/sodipodi-0.dtd"
   xmlns:inkscape="http://www.inkscape.org/namespaces/inkscape"
   version="1.1"
   id="svg62"
   width="337"
   height="337"
   viewBox="0 0 337 337"
   sodipodi:docname="UncleSamInkscape.svg"
   inkscape:version="0.92.4 (5da689c313, 2019-01-14)">
  <metadata
     id="metadata68">
    <rdf:RDF>
      <cc:Work
         rdf:about="">
        <dc:format>image/svg+xml</dc:format>
        <dc:type
           rdf:resource="http://purl.org/dc/dcmitype/StillImage" />
        <dc:title></dc:title>
      </cc:Work>
    </rdf:RDF>
  </metadata>
  <defs
     id="defs66" />
  <sodipodi:namedview
     inkscape:lockguides="true"
     pagecolor="#ffffff"
     bordercolor="#666666"
     inkscape:document-rotation="0"
     borderopacity="1"
     objecttolerance="10"
     gridtolerance="10"
     guidetolerance="10"
     inkscape:pageopacity="0"
     inkscape:pageshadow="2"
     inkscape:window-width="1440"
     inkscape:window-height="900"
     id="namedview64"
     showgrid="false"
     inkscape:zoom="0.86711783"
     inkscape:cx="400.45014"
     inkscape:cy="161.52026"
     inkscape:window-x="0"
     inkscape:window-y="27"
     inkscape:window-maximized="0"
     inkscape:current-layer="g70"
     units="px"
     inkscape:document-units="px" />
  <g
     inkscape:groupmode="layer"
     id="layer1"
     inkscape:label="Fond"
     style="opacity:0.64563108"
     transform="translate(0,-163)">
    <rect
       style="opacity:0.79099702;fill:#000080;stroke-width:0.06720664"
       id="rect124"
       width="341.4343"
       height="340.33817"
       x="-1.261884"
       y="162.80547" />
  </g>
  <g
     transform="translate(-6.4910896,-166.82739)"
     inkscape:groupmode="layer"
     inkscape:label="Image"
     id="g70">
    <path
       style="fill:#000000;stroke-width:1.2082746"
       d="m 38.58222,478.8327 c -0.872577,-2.34783 -0.880729,-8.07582 -0.03747,-26.32669 0.572179,-12.38314 1.060113,-14.89959 3.968335,-20.46682 l 3.315927,-6.34772 -2.636322,-6.56737 c -3.620347,-9.01856 -3.388577,-11.32742 1.525501,-15.19738 4.850811,-3.82016 4.934252,-4.46171 1.783651,-13.71705 -2.969947,-8.72471 -3.060162,-14.39535 -0.262762,-16.51687 1.778489,-1.34873 2.145762,-3.71806 2.305704,-14.87389 0.170355,-11.88221 0.513865,-13.83978 3.285631,-18.72315 3.384182,-5.96234 3.781739,-6.14967 8.420421,-3.96747 2.671291,1.25668 3.384742,1.16729 4.62151,-0.57906 1.989827,-2.80969 12.981673,-7.9346 20.45991,-9.53934 l 6.130132,-1.31545 -1.11645,-4.17482 c -0.846146,-3.16408 -0.643099,-5.30385 0.838705,-8.83828 2.802377,-6.68431 4.003742,-12.54145 2.73808,-13.34909 -0.596586,-0.38069 -0.799692,-1.16829 -0.451361,-1.75025 1.306908,-2.1833 -2.205626,-2.7442 -3.727528,-0.59522 -1.169039,1.65069 -1.239291,2.66315 -0.268583,3.87081 0.961033,1.19556 0.958372,1.63542 -0.0099,1.63542 -1.40134,0 -8.479655,-7.14733 -8.479655,-8.56232 0,-1.53591 5.321964,-5.87962 8.323696,-6.79368 3.692413,-1.12439 5.951145,-2.93268 5.927329,-4.74525 -0.01243,-0.9493 -0.303957,-0.9202 -0.927485,0.0926 -0.500085,0.81234 -3.167369,1.84981 -5.927284,2.30548 -4.440168,0.7331 -5.018056,0.55593 -5.018056,-1.53836 0,-1.30177 0.620076,-3.0071 1.377956,-3.78961 1.044539,-1.07849 0.217044,-2.62138 -3.419936,-6.37658 -5.191773,-5.3605 -8.137474,-11.22661 -7.074184,-14.08757 0.367097,-0.98776 2.702184,-2.14791 5.189085,-2.5781 2.486909,-0.43018 5.859369,-1.24578 7.494385,-1.81242 l 2.972747,-1.03028 -2.972747,-0.0676 c -5.184507,-0.11797 -12.367329,2.11729 -13.940107,4.33807 -1.290514,1.82224 -1.518227,1.8547 -1.518227,0.21644 0,-4.39233 14.097879,-6.75608 25.493843,-4.27449 4.178759,0.90996 4.517369,0.81211 3.136109,-0.90629 -1.291538,-1.60678 -1.230298,-2.05244 0.36913,-2.68615 2.7461,-1.08802 5.84679,0.44154 5.0796,2.50576 -0.37672,1.01363 0.19878,1.98588 1.36303,2.30272 1.33776,0.36407 1.01589,0.62532 -0.95774,0.77731 -4.87033,0.37506 5.22297,3.73062 13.67466,4.5462 24.24375,2.33951 79.96087,-11.13853 89.06968,-21.54606 2.52774,-2.88815 2.97469,-3.01198 5.32472,-1.47526 1.37826,0.90128 1.33015,1.53864 -0.29728,3.93762 -2.74424,4.04529 -2.37159,6.02253 0.43648,2.31592 3.09376,-4.08366 3.01762,-1.97192 -0.11775,3.26607 -2.00698,3.35291 -2.2114,4.52375 -1.04349,5.97672 1.87148,2.32831 3.53942,2.31198 3.53942,-0.0346 0,-4.47646 5.60473,-0.23147 7.26961,5.50594 1.71272,5.90235 -0.0965,9.19747 -4.43302,8.07371 -1.47997,-0.38351 -3.02719,-0.13539 -3.43828,0.5514 -0.95266,1.59154 -10.0563,0.7468 -13.79222,-1.27978 -2.77456,-1.50508 -2.79436,-1.48241 -0.76713,0.87893 3.18918,3.71477 2.47115,4.87868 -0.95784,1.55262 -2.51714,-2.44159 -2.8907,-2.54912 -2.17614,-0.62648 0.63403,1.70592 0.46025,2.0643 -0.65568,1.3522 -2.00073,-1.27673 -0.6922,5.621 2.18935,11.54059 2.74385,5.63673 4.47607,5.97112 5.49642,1.06106 1.15545,-5.56039 1.69867,-6.2433 3.64164,-4.57839 1.30549,1.11868 1.68183,1.0638 1.69598,-0.24731 0.0143,-1.3235 0.26554,-1.28989 1.17091,0.15661 2.04164,3.26188 1.39998,9.61905 -1.11093,11.00653 -3.31024,1.82917 -4.24407,1.62545 -8.16532,-1.78131 l -3.51323,-3.05226 -0.96168,3.97307 c -0.52891,2.18518 -1.05797,5.90676 -1.17568,8.27018 -0.46741,9.38423 -2.74251,21.88761 -4.69027,25.77655 -1.43823,2.87166 -1.85083,5.64157 -1.37464,9.22867 0.62418,4.7019 0.32569,5.47112 -3.61184,9.30816 -3.05949,2.98137 -4.02431,3.47744 -3.3593,1.72717 0.51309,-1.35052 1.31654,-4.66543 1.78543,-7.36648 0.46887,-2.70104 1.39878,-6.29222 2.06644,-7.98035 4.08944,-10.33997 5.04699,-18.00699 2.24892,-18.00699 -0.90603,0 -2.77665,2.67035 -4.15691,5.93413 -2.4387,5.76659 -5.78988,8.36178 -4.56801,3.53748 0.33386,-1.31815 0.21355,-2.56124 -0.26737,-2.76243 -0.4809,-0.2012 -1.18773,-2.02907 -1.57074,-4.06195 -0.57946,-3.07574 -0.21191,-3.9322 2.18972,-5.10243 2.13044,-1.03808 2.88606,-1.04364 2.88606,-0.0212 0,0.76178 1.14445,0.20342 2.54322,-1.24082 1.73887,-1.79537 2.72664,-4.69686 3.12316,-9.174 0.31897,-3.60146 0.9946,-7.10061 1.50141,-7.77588 0.50679,-0.67525 1.10799,-3.38549 1.33596,-6.02277 0.48866,-5.65265 -1.96303,-7.49726 -3.09623,-2.32956 -0.77557,3.53686 -6.81875,10.94997 -10.95266,13.43553 -2.11962,1.27442 -2.28315,1.0818 -1.82396,-2.14855 0.33001,-2.32162 -0.0171,-3.54851 -1.00394,-3.54851 -1.00226,0 -0.78398,-0.82643 0.6505,-2.46304 2.47716,-2.82621 1.55205,-4.80253 -1.16015,-2.47844 -0.99305,0.85095 -3.14637,1.28254 -4.78513,0.95909 -3.07663,-0.60726 -4.0219,0.71686 -1.61036,2.2557 0.96214,0.61398 0.7746,1.32269 -0.63077,2.38372 -1.79823,1.35763 -1.60649,1.77016 1.90079,4.08903 2.14544,1.41849 3.19675,2.58837 2.33626,2.59972 -2.22218,0.0294 -6.58764,-2.49341 -7.71007,-4.45564 -0.52302,-0.91433 -1.49102,-1.6624 -2.15111,-1.6624 -0.66012,0 -0.8507,0.58389 -0.42351,1.29753 0.95285,1.59186 -0.32098,7.29671 -1.62927,7.29671 -0.85935,0 -5.52847,-10.60433 -6.38345,-14.49784 -0.33564,-1.5283 5.56494,-4.47941 12.1119,-6.05765 3.69419,-0.89053 5.72163,-2.91602 5.03809,-5.03327 -0.39955,-1.23763 0.3442,-1.16174 3.11544,0.31789 4.20133,2.24321 5.38581,2.44147 4.36134,0.72997 -0.43231,-0.72223 0.10447,-0.88449 1.32536,-0.40072 1.59976,0.63383 1.87538,0.33808 1.25088,-1.34223 -0.44055,-1.18536 -0.80099,-2.66249 -0.80099,-3.28252 0,-1.67574 -7.32341,-1.36514 -14.72119,0.62436 -8.8683,2.38497 -11.43237,3.99189 -11.47689,7.19268 -0.0353,2.55042 -0.1379,2.58298 -1.65016,0.5245 -4.21329,-5.73516 -25.66958,-6.09974 -31.01232,-0.52696 -0.79871,0.83311 -0.60353,0.90227 0.59456,0.21064 1.54539,-0.89213 1.56249,-0.74823 0.12781,1.0773 -2.31429,2.94485 -0.92267,3.80167 3.55622,2.18959 5.21662,-1.87763 8.24136,-1.71816 10.68291,0.56322 2.22171,2.07596 12.9824,3.40844 12.9824,1.60759 0,-0.59676 0.52185,-1.08503 1.15968,-1.08503 0.75349,0 0.75349,1.10305 0,3.1493 -0.63783,1.73211 -1.15968,6.49589 -1.15968,10.58619 0,6.47137 -0.23157,7.23845 -1.78364,5.90848 -0.98102,-0.84063 -1.78367,-2.28949 -1.78367,-3.2197 0,-0.93021 -0.75806,-1.69129 -1.68455,-1.69129 -0.92651,0 -1.92681,-0.69061 -2.22285,-1.53468 -0.42748,-1.21875 -1.12105,-1.20633 -3.36912,0.0604 -2.80619,1.58114 -2.80496,1.57154 0.14191,-1.10291 l 2.97275,-2.69794 -3.23835,0.81114 c -2.70969,0.67873 -3.11275,0.47325 -2.46904,-1.2588 0.62225,-1.67427 0.33205,-1.87345 -1.51806,-1.04203 -1.25804,0.56536 -3.49134,1.07564 -4.96285,1.13395 -3.4237,0.1357 -2.78548,2.25952 0.98,3.26106 l 2.88459,0.76726 -2.87962,0.49435 c -3.83311,0.65806 -4.52275,3.31351 -1.191,4.58605 2.34024,0.89385 2.41506,1.11973 0.60799,1.8357 -2.88805,1.14426 -6.53646,-1.17896 -7.97959,-5.08122 -1.19788,-3.23913 -1.25475,-3.25516 -3.00296,-0.84616 -3.3934,4.67604 -4.36718,7.08899 -2.61499,6.4797 0.88103,-0.30635 2.51275,0.98096 3.62607,2.8607 1.36769,2.30926 3.41552,3.68721 6.31407,4.24865 3.40623,0.65979 4.10594,1.24254 3.39691,2.82906 -0.49113,1.09895 -0.80468,4.04707 -0.69678,6.55138 0.15325,3.55595 -0.1877,4.40116 -1.55652,3.85882 -2.83395,-1.12285 -2.0978,2.73903 2.21854,11.63828 2.18421,4.5033 3.74489,8.87843 3.46822,9.72252 -0.29597,0.90286 0.51682,1.53468 1.97424,1.53468 1.3625,0 2.47728,0.57559 2.47728,1.27906 0,0.70352 1.10957,2.4991 2.46572,3.9902 1.35614,1.49111 2.36297,2.1586 2.23738,1.48333 -0.45544,-2.44892 0.0788,-4.2971 1.24241,-4.2971 0.65401,0 1.19728,1.2431 1.20731,2.76243 0.0124,1.88822 0.32349,2.26575 0.98285,1.19291 0.695,-1.13078 1.41833,-0.61596 2.58757,1.84164 1.56765,3.29495 1.63826,3.31704 2.0726,0.6487 0.7106,-4.36532 2.26415,-3.23808 3.71044,2.69224 1.73249,7.10401 1.80295,6.8228 -1.70955,6.8228 -1.82787,0 -4.31673,-1.42216 -6.24277,-3.56718 -3.46224,-3.85586 -10.78138,-7.48256 -15.10088,-7.48256 -3.17513,0 -10.86463,8.26006 -11.98671,12.87612 -0.41658,1.71386 -0.5195,4.79016 -0.22862,6.8363 0.39535,2.78122 0.1196,3.5581 -1.09255,3.07786 -1.98706,-0.78729 -3.26265,2.06055 -6.22662,13.90165 -1.24836,4.98715 -3.14345,9.95953 -4.2113,11.04973 -1.78967,1.82708 -1.87519,1.79006 -1.09328,-0.47336 0.46656,-1.35051 0.60861,-2.17924 0.31571,-1.84161 -0.29291,0.33761 -4.14769,4.551 -8.566173,9.36306 -7.611472,8.28948 -8.161464,9.28939 -10.467479,19.03009 -1.933246,8.16623 -2.30256,12.69045 -1.795505,21.99541 0.710555,13.03926 1.584169,16.12542 6.034698,21.31872 1.681389,1.96199 3.057075,4.09292 3.057075,4.7354 0,0.64248 0.802642,0.85013 1.783654,0.46144 0.98101,-0.38869 1.783645,-0.10604 1.783645,0.62823 0,0.73421 1.885215,-0.14968 4.189345,-1.96425 l 4.18933,-3.29923 -0.32475,6.82844 -0.32477,6.82839 -33.629426,0.009 c -29.347112,0.006 -33.719905,-0.2354 -34.339866,-1.9035 z m 75.69847,1.14356 c 0,-0.34008 1.60531,-2.01299 3.56731,-3.71757 1.96202,-1.7046 3.5673,-3.91649 3.5673,-4.91536 0,-1.42369 -0.77072,-1.2494 -3.5673,0.80663 -5.98534,4.40046 -4.45524,-0.38105 2.6755,-8.36078 3.43352,-3.84234 5.03553,-5.93052 3.56001,-4.64039 -3.92089,3.42818 -4.39803,1.71748 -0.57486,-2.06103 1.7917,-1.77076 5.39802,-3.97015 8.01403,-4.88749 2.61602,-0.91736 4.64361,-2.26385 4.50577,-2.99217 -0.13785,-0.72831 0.59073,-1.25108 1.61909,-1.16171 3.48439,0.30282 4.63909,-3.50419 2.99169,-9.86369 -1.51932,-5.86521 -4.98001,-14.30511 -5.59782,-13.65188 -0.1825,0.19297 0.96247,4.44358 2.54431,9.44583 1.58189,5.00227 2.63949,9.33935 2.35026,9.63802 -1.29092,1.33285 -2.93402,-1.39933 -4.25145,-7.0694 -0.78542,-3.38046 -1.91038,-6.45408 -2.49991,-6.83028 -1.30987,-0.83587 -3.44559,4.63375 -3.44559,8.82428 0,1.68406 -0.5194,2.73047 -1.15424,2.32536 -0.63484,-0.40509 -1.46681,0.5493 -1.84883,2.12089 -0.38203,1.57158 -1.83462,3.38976 -3.22798,4.0404 -1.39333,0.65062 -2.77115,1.95047 -3.06183,2.88854 -0.35057,1.13148 0.0238,1.40809 1.11217,0.82178 0.90236,-0.48612 0.0353,0.58925 -1.92666,2.38965 -1.96202,1.80042 -5.01631,5.0218 -6.78733,7.15862 l -3.22002,3.88508 1.73363,-6.02692 c 2.31389,-8.044 2.18509,-12.0577 -0.54299,-16.92316 -1.25218,-2.2332 -2.94215,-6.40844 -3.75551,-9.27829 -0.8134,-2.86986 -1.87674,-5.21793 -2.36301,-5.21793 -1.52418,0 -2.42993,-13.85934 -1.28378,-19.64396 l 1.09469,-5.52487 0.17262,7.36648 c 0.15421,6.57974 2.72374,20.93307 3.97955,22.2297 0.80197,0.82804 3.40495,-9.30226 2.695,-10.48831 -0.36197,-0.60472 -0.0328,-2.66516 0.73151,-4.5788 0.76429,-1.91365 1.30453,-3.88961 1.20055,-4.39103 -0.1041,-0.50143 -0.24185,-5.99487 -0.30633,-12.20764 -0.0989,-9.51938 0.21698,-11.54831 2.00797,-12.90047 2.85185,-2.15309 2.88641,-2.14273 7.38923,2.21447 3.60147,3.48497 3.77859,3.98592 2.09048,5.91188 -2.38432,2.72028 -0.56328,5.44814 5.27111,7.89585 5.79947,2.43305 18.54367,3.81572 19.55754,2.12187 0.43865,-0.73281 2.67804,-1.33239 4.97639,-1.33239 3.33908,0 4.09877,-0.43179 3.78016,-2.14854 -0.30649,-1.65162 -2.3207,-2.43255 -8.70818,-3.37632 -4.57019,-0.67527 -9.11207,-1.78023 -10.09309,-2.45549 -0.98102,-0.67526 -3.30708,-1.78022 -5.16906,-2.4555 -4.66945,-1.69343 -4.16617,-3.48592 1.32934,-4.73476 3.73241,-0.84816 5.57678,-0.55137 9.53709,1.53469 6.08054,3.20288 12.84919,3.30086 17.32982,0.25086 l 3.407,-2.3192 -6.63856,-1.9926 c -11.02927,-3.31051 -13.79774,-3.58572 -18.82755,-1.87179 -4.32119,1.4725 -5.20537,1.40444 -8.54233,-0.65717 -2.04722,-1.26482 -6.12404,-2.61817 -9.05962,-3.00746 -3.97631,-0.52731 -5.44737,-1.30118 -5.76869,-3.03468 -0.37958,-2.04794 0.12961,-2.24923 4.2474,-1.67896 4.57979,0.63422 4.67916,0.56665 4.70172,-3.19798 0.0127,-2.11525 -0.64163,-4.8485 -1.45403,-6.07389 -1.5584,-2.35065 -1.07895,-6.45048 1.08656,-9.29162 1.04914,-1.37648 1.44416,-1.14419 2.08794,1.22773 0.75964,2.79885 0.79913,2.77622 0.91252,-0.52338 0.0726,-2.11143 0.61106,-3.13447 1.38871,-2.63824 0.69859,0.44579 1.00299,1.52935 0.67648,2.40792 -0.32653,0.87858 -0.24513,1.9573 0.1809,2.39715 0.426,0.43988 0.67155,2.84196 0.54564,5.33796 -0.24024,4.76188 0.20028,4.35698 1.40729,-1.29358 1.00562,-4.70762 3.12818,-4.23576 2.76138,0.61387 -0.21685,2.86681 0.20035,3.9902 1.48184,3.9902 2.04826,0 2.52916,-8.1422 0.72515,-12.2775 -1.04761,-2.40147 -1.01665,-2.40552 1.40741,-0.18451 2.08894,1.91397 2.44819,3.55461 2.28501,10.43584 l -0.19361,8.16489 4.13081,1.46539 c 2.27194,0.80595 6.1374,1.49656 8.58994,1.53468 2.45253,0.038 4.45912,0.62178 4.45912,1.29704 0,1.98163 3.24629,1.40694 4.03465,-0.71429 1.59318,-4.2867 0.74235,-6.45243 -2.85544,-7.26831 -1.96745,-0.44619 -4.15118,-1.91861 -4.85275,-3.27207 -1.45674,-2.81044 -1.2366,-3.24579 1.9621,-3.87997 2.30425,-0.45682 6.09206,-1.87716 8.15632,-3.05842 0.60165,-0.34429 0.74408,0.31523 0.31655,1.4656 -0.90428,2.43309 1.448,6.90547 3.63198,6.90547 0.82369,0 1.49761,-1.13758 1.49761,-2.52795 0,-1.39037 0.5351,-2.18649 1.18912,-1.76916 1.62997,1.04011 1.5011,7.16712 -0.18743,8.91053 -1.04263,1.07652 -1.02861,1.85408 0.0578,3.20562 1.0243,1.2743 1.06137,2.02229 0.12968,2.61683 -0.85735,0.54709 -0.90775,1.32618 -0.14699,2.27263 0.79619,0.99049 -0.30935,3.69329 -3.54102,8.65707 -2.58424,3.96931 -4.45107,7.47255 -4.14852,7.7849 0.30254,0.3124 0.002,2.03049 -0.66723,3.81803 -1.27625,3.40743 -1.91606,13.86652 -2.41441,39.46864 -0.23258,11.94731 0.12197,16.29872 1.60022,19.64398 3.50992,7.9425 6.93974,17.01887 6.93974,18.36474 0,0.92572 -8.38402,1.30346 -27.34934,1.2323 -15.04215,-0.0565 -27.34936,-0.38095 -27.34936,-0.72103 z m 97.12614,-1.35442 c -1.19215,-4.65785 -0.80365,-49.47935 0.52964,-61.10667 1.53512,-13.38727 0.23404,-42.45092 -1.93306,-43.18116 -0.654,-0.22036 -2.7254,0.96344 -4.6031,2.63073 -2.61444,2.32145 -3.91897,2.75239 -5.57005,1.84002 -1.18584,-0.65526 -3.12766,-1.19477 -4.31517,-1.19895 -1.18752,-0.004 -3.69179,-0.83288 -5.56505,-1.84162 -4.66291,-2.51092 -5.28617,-2.3453 -5.80455,1.54225 l -0.45021,3.3763 -1.28434,-3.06937 -1.28434,-3.06936 -0.7092,3.06936 c -0.39004,1.68816 -0.8902,5.8318 -1.11144,9.20812 -0.22124,3.37629 -0.39128,0.61387 -0.37784,-6.13875 0.0143,-7.24428 -0.55741,-13.37685 -1.39486,-14.9592 -1.55852,-2.94487 -1.77263,-13.1348 -0.35451,-16.87248 0.86208,-2.2721 0.93094,-2.27602 1.74029,-0.0984 0.74943,2.01648 1.37581,1.73482 5.65968,-2.54526 2.6493,-2.64696 5.80266,-6.78333 7.00748,-9.19193 1.20478,-2.40858 3.04662,-5.11283 4.09296,-6.00945 1.76117,-1.50915 8.9733,-11.87723 8.9733,-12.89992 0,-0.2487 -1.89685,-1.66262 -4.21523,-3.14201 -4.07705,-2.60165 -4.19147,-2.8766 -3.49081,-8.38744 1.33003,-10.46063 1.93925,-12.46258 4.1672,-13.6937 3.55179,-1.96263 15.13432,8.74389 19.39068,17.92411 4.16464,8.98245 7.84827,11.91243 16.2539,12.92856 12.39584,1.49846 24.39162,4.87526 30.03227,8.45405 l 5.65568,3.58833 4.07587,-2.48303 c 3.81194,-2.32217 4.31134,-2.35731 7.71009,-0.54263 2.03791,1.0881 4.76016,4.2193 6.19778,7.12885 1.41003,2.85366 3.22849,5.74283 4.04107,6.42038 0.81259,0.67753 1.82591,3.28775 2.25185,5.80045 0.45516,2.68497 2.3872,6.33417 4.68607,8.85089 5.14976,5.6378 7.08815,12.53719 7.09529,25.25461 0.004,5.73973 0.21602,8.64028 0.47289,6.44567 0.25691,-2.19458 0.94939,-3.99017 1.53897,-3.99017 2.38905,0 3.76545,5.58175 3.33157,13.51051 -0.39963,7.30202 -0.94963,8.91038 -4.66819,13.65102 -2.31835,2.9556 -5.15851,7.85999 -6.31145,10.89866 -2.22604,5.86684 -5.96884,12.80641 -8.70199,16.13448 -2.20826,2.68893 -5.95534,1.53694 -7.98031,-2.45346 l -1.62356,-3.19936 -1.42682,5.47097 c -1.3299,5.09938 -1.53995,5.31122 -3.09266,3.11874 -2.1608,-3.05111 -2.07865,-0.93907 0.11787,3.02809 2.14523,3.87466 2.54579,31.92144 0.45585,31.92144 -0.74264,0 -1.0535,-1.08282 -0.70541,-2.45719 0.34226,-1.35148 0.13714,-2.14757 -0.45588,-1.76915 -0.59306,0.37844 -1.07823,-0.40433 -1.07823,-1.73949 0,-3.24996 -1.20362,-6.31159 -2.48128,-6.31159 -0.57072,0 -2.09458,2.13896 -3.38634,4.75327 -2.55445,5.16992 -7.94552,8.15962 -6.55465,3.63501 0.73055,-2.37658 0.65346,-2.38883 -2.32935,-0.37091 -3.57769,2.42037 -3.66309,2.01841 -1.28841,-6.06396 3.04024,-10.34756 1.75089,-10.43278 -1.69201,-0.11194 l -3.27643,9.82201 -22.70244,0.3331 c -20.88002,0.30641 -22.74711,0.15859 -23.25906,-1.84161 z m 89.55315,-25.91121 c -1.61504,-1.84277 -1.4244,-2.61351 1.9173,-7.75037 2.04085,-3.13727 4.91258,-10.30326 6.38161,-15.92443 4.06066,-15.53818 4.46295,-16.39948 6.74587,-14.44328 1.56665,1.34247 1.7862,3.22049 1.20554,10.31266 -0.98028,11.97367 -4.06854,21.08999 -8.79895,25.97419 -4.44301,4.5874 -4.93074,4.70726 -7.45137,1.83123 z M 170.97796,422.84509 c -1.64546,-0.95078 -1.82237,-1.61426 -0.77715,-2.91461 0.74431,-0.92596 1.01381,-2.95321 0.59893,-4.50493 -0.73133,-2.73518 -0.69799,-2.74857 1.09083,-0.43815 1.61572,2.08678 1.84522,2.12497 1.84522,0.30694 0,-1.14195 0.5351,-2.07629 1.18913,-2.07629 0.65398,0 1.18909,0.82873 1.18909,1.84163 0,1.0129 0.83819,1.84163 1.86263,1.84163 1.3283,0 1.75471,0.96283 1.48639,3.35638 -0.28988,2.58591 -1.06245,3.40942 -3.36543,3.5874 -1.64404,0.12701 -3.94787,-0.32294 -5.11964,-1 z m 6.32514,-8.47173 c 0,-0.71514 0.5351,-0.95877 1.18913,-0.54142 0.654,0.41734 1.18909,1.00242 1.18909,1.30021 0,0.29778 -0.53509,0.54141 -1.18909,0.54141 -0.65403,0 -1.18913,-0.5851 -1.18913,-1.3002 z m -5.37536,-9.29772 c -0.40411,-1.93664 -1.26234,-4.85724 -1.90722,-6.49023 -0.99785,-2.52684 -0.91559,-2.74888 0.55246,-1.49094 0.94871,0.81295 2.08297,3.44859 2.52057,5.85694 0.95177,5.23829 -0.11167,7.17607 -1.16581,2.12423 z m 8.71973,-4.97375 c 0.85836,-0.35466 1.88397,-0.31105 2.27909,0.0969 0.39515,0.40797 -0.30717,0.69815 -1.56067,0.64485 -1.38525,-0.0591 -1.66701,-0.34982 -0.71842,-0.74176 z m -30.6937,-31.96453 c 0,-1.43035 -0.3016,-3.61267 -0.67025,-4.84961 -0.36862,-1.23695 0.21447,-0.66869 1.29579,1.26273 1.41861,2.5339 1.60522,3.88424 0.67024,4.84961 -0.93499,0.96538 -1.29578,0.61376 -1.29578,-1.26273 z m -5.26145,-0.5751 c -0.26855,-0.88688 -0.74211,-4.09867 -1.05238,-7.13735 l -0.56416,-5.52487 2.16171,4.91098 c 1.18894,2.70105 2.20137,5.569 2.24988,6.37321 0.12807,2.12374 -2.2189,3.28083 -2.79505,1.37803 z m 29.71448,-0.63873 c -0.6453,-1.74977 -0.50872,-1.8908 0.66567,-0.68729 0.81265,0.83283 1.17801,1.82349 0.81189,2.20151 -0.36611,0.37801 -1.03102,-0.30339 -1.47756,-1.51422 z m -17.83712,-21.47831 c 0.81414,-2.6486 0.7694,-2.66079 -2.25625,-0.61388 -3.8796,2.62463 -6.33632,2.72611 -3.85006,0.15902 2.77559,-2.86578 2.27403,-5.05399 -1.40143,-6.1144 -2.5317,-0.7304 -2.78594,-1.06082 -1.12596,-1.46343 3.69313,-0.8957 -0.11836,-3.99345 -4.96516,-4.03542 -8.2638,-0.0716 -0.70847,-2.49734 10.25051,-3.29118 9.61039,-0.69616 10.28217,-0.5976 8.77514,1.28732 -0.89759,1.12266 -3.17174,2.0412 -5.05367,2.0412 -1.88194,0 -3.42174,0.5525 -3.42174,1.22773 0,2.17474 7.1279,1.30641 10.51775,-1.28127 2.0078,-1.53268 4.09637,-2.18824 5.3673,-1.68468 1.90302,0.75399 1.84943,1.07827 -0.62831,3.80143 -2.18029,2.3962 -2.38978,3.1807 -1.07376,4.02049 1.2094,0.77173 0.37089,1.70931 -3.22048,3.60105 -2.6706,1.40671 -5.19104,3.11804 -5.60102,3.80293 -1.41809,2.36907 -3.15302,1.27619 -2.31286,-1.45691 z m 17.65276,-1.44255 c -1.00743,-2.71065 0.33283,-4.09447 2.14921,-2.21906 1.07246,1.1073 1.07703,1.79362 0.0191,2.88588 -1.05787,1.09222 -1.57355,0.93364 -2.16838,-0.66682 z m -3.4594,-14.22596 c -2.18315,-0.92689 -2.20753,-1.08161 -0.29726,-1.8867 2.44418,-1.03011 5.64823,-0.007 5.64823,1.80266 0,1.47713 -1.99577,1.50847 -5.35097,0.084 z m -40.98758,-6.18424 c 0,-1.68816 0.5187,-3.8981 1.15267,-4.91099 0.91245,-1.45779 1.1527,-1.2019 1.1527,1.22774 0,1.68816 -0.51871,3.89811 -1.1527,4.91099 -0.91244,1.45779 -1.15267,1.20189 -1.15267,-1.22774 z m 18.34717,-4.96119 c -3.85795,-4.07932 -4.37642,-5.16262 -2.91679,-6.09445 2.57997,-1.64704 8.45729,-0.67806 10.11897,1.66827 0.78716,1.11149 1.82153,2.02086 2.29861,2.02086 1.77011,0 5.33266,-5.6232 5.37092,-8.47757 0.0385,-2.87463 0.10247,-2.89394 2.41775,-0.73052 2.64155,2.46827 3.124,6.1318 0.98703,7.49544 -0.96163,0.61362 -1.1443,0.16215 -0.59163,-1.46224 0.77516,-2.27827 0.74505,-2.27727 -0.98704,0.0332 -0.9826,1.31076 -1.78657,3.63941 -1.78657,5.17473 0,1.53533 -1.03501,3.36346 -2.30001,4.06246 -4.35406,2.40595 -7.79925,1.39782 -12.61124,-3.69024 z m 0.64203,-15.983 c 0,-1.39035 0.51173,-2.2014 1.13717,-1.80229 0.62546,0.3991 0.83574,1.53669 0.46733,2.52794 -0.94322,2.53791 -1.6045,2.23884 -1.6045,-0.72565 z m 61.99632,-9.77027 c 1.07067,-0.64563 3.68122,-3.96475 5.8012,-7.37584 2.11999,-3.4111 4.03876,-6.0118 4.26389,-5.77935 0.22515,0.23248 -0.14672,2.60155 -0.82638,5.26463 -1.39983,5.48502 -4.88604,9.15685 -8.64163,9.10173 -2.18672,-0.0321 -2.2705,-0.20209 -0.59708,-1.21117 z m -95.61592,-37.87775 c -3.50958,-0.82543 -7.97814,-6.64545 -7.99113,-10.40801 -0.005,-1.24627 0.97463,-3.73247 2.1754,-5.52487 4.11847,-6.14761 4.13266,-6.34336 0.40455,-5.5735 -2.75203,0.5683 -3.87878,0.12399 -5.41008,-2.13329 -1.06377,-1.56809 -1.93411,-3.85046 -1.93411,-5.07192 0,-1.22147 -0.79285,-2.53499 -1.76187,-2.91892 -1.351347,-0.53541 -1.473003,-1.2554 -0.52209,-3.08993 0.8751,-1.68829 0.81768,-4.33939 -0.19522,-9.01263 -1.139657,-5.25806 -1.124898,-7.39382 0.07186,-10.37676 0.82873,-2.0658 1.93263,-3.756 2.4531,-3.756 0.52048,0 1.5289,2.80485 2.24097,6.23302 1.65192,7.95298 3.22435,10.9444 5.78159,10.99895 1.51438,0.0323 1.27413,0.49501 -0.93368,1.79812 -4.37576,2.58271 -1.81585,2.21973 3.3174,-0.47039 5.26585,-2.75959 22.05699,-6.51652 24.60785,-5.50585 2.15152,0.85244 2.2556,2.90148 0.46146,9.08443 -1.41802,4.88666 -3.7746,6.59497 -11.03879,8.00204 -2.34729,0.45466 -4.26781,1.20756 -4.26781,1.67312 0,0.46555 2.4253,2.06305 5.38955,3.55 2.96426,1.48695 5.71461,3.57816 6.11191,4.64714 0.39728,1.06897 0.0632,4.98421 -0.74219,8.70053 -1.28482,5.92779 -1.95719,6.96945 -5.47917,8.48887 -4.19309,1.80892 -7.20904,1.96656 -12.73945,0.66585 z m 19.35038,-1.82675 c 0,-2.56829 8.85594,-10.6124 11.68343,-10.6124 1.46566,0 5.36339,1.41189 8.66162,3.13756 4.7261,2.47272 5.71747,3.48502 4.67864,4.77743 -2.54473,3.16586 -25.02369,5.58897 -25.02369,2.69741 z m 27.97243,-5.60859 c -0.39945,-1.29946 -1.93295,-4.20002 -3.40776,-6.44567 -4.64907,-7.0789 -4.65067,-8.02936 -0.0226,-13.31858 l 4.27313,-4.88353 h -6.67096 c -6.456,0 -6.78617,-0.16419 -10.24573,-5.09521 -6.16356,-8.78505 -5.09966,-9.67935 12.47811,-10.48911 9.82315,-0.45253 13.02836,-0.12175 18.43108,1.90208 l 6.54007,2.44987 v 7.43702 c 0,6.98931 -0.1113,7.28544 -1.84966,4.91899 -1.41183,-1.92203 -2.60802,-2.32152 -5.05368,-1.68775 -1.76222,0.45666 -3.20403,1.07404 -3.20403,1.37193 0,0.29789 1.87283,2.5327 4.16184,4.96623 3.10609,3.30218 4.16186,5.48738 4.16186,8.61409 0,6.38156 -1.82827,8.67533 -8.55995,10.73939 -8.04583,2.46701 -10.15405,2.37531 -11.03169,-0.47975 z m 20.78075,-3.56205 c 0,-0.55755 1.23448,-2.21114 2.74326,-3.67465 2.1247,-2.06093 3.06313,-2.33065 4.16186,-1.19621 2.17074,2.24128 1.74512,3.07136 -2.32616,4.53674 -4.48713,1.61506 -4.57896,1.62177 -4.57896,0.33412 z m 12.48557,-4.53337 c 1.30802,-1.09961 3.44841,-2.54179 4.7564,-3.20483 l 2.37822,-1.20551 -2.37822,1.99932 c -1.30799,1.09962 -3.44838,2.54179 -4.7564,3.20482 l -2.37821,1.20552 z M 94.584219,194.21869 c -2.69366,-7.19588 -1.780492,-7.92354 4.14303,-3.30139 2.660281,2.07585 2.761631,2.53445 1.342101,6.07289 -0.844517,2.10512 -1.871896,3.81805 -2.283067,3.80651 -0.411144,-0.0116 -1.852089,-2.97164 -3.202064,-6.57801 z"
       id="path74"
       inkscape:connector-curvature="0" />
  </g>
</svg>
