<?xml version="1.0" encoding="UTF-8" standalone="no"?>
<!-- Created with Inkscape (http://www.inkscape.org/) -->

<svg
   xmlns:dc="http://purl.org/dc/elements/1.1/"
   xmlns:cc="http://creativecommons.org/ns#"
   xmlns:rdf="http://www.w3.org/1999/02/22-rdf-syntax-ns#"
   xmlns:svg="http://www.w3.org/2000/svg"
   xmlns="http://www.w3.org/2000/svg"
   xmlns:sodipodi="http://sodipodi.sourceforge.net/DTD/sodipodi-0.dtd"
   xmlns:inkscape="http://www.inkscape.org/namespaces/inkscape"
   version="1.1"
   id="svg2"
   width="337.28799"
   height="337.28799"
   viewBox="0 0 337.288 337.28799"
   sodipodi:docname="adherer-vignette.svg"
   inkscape:version="0.92.1 r15371">
  <metadata
     id="metadata8">
    <rdf:RDF>
      <cc:Work
         rdf:about="">
        <dc:format>image/svg+xml</dc:format>
        <dc:type
           rdf:resource="http://purl.org/dc/dcmitype/StillImage" />
        <dc:title></dc:title>
      </cc:Work>
    </rdf:RDF>
  </metadata>
  <defs
     id="defs6" />
  <sodipodi:namedview
     pagecolor="#ffffff"
     bordercolor="#666666"
     borderopacity="1"
     objecttolerance="10"
     gridtolerance="10"
     guidetolerance="10"
     inkscape:pageopacity="0"
     inkscape:pageshadow="2"
     inkscape:window-width="1366"
     inkscape:window-height="702"
     id="namedview4"
     showgrid="false"
     inkscape:zoom="1.668772"
     inkscape:cx="-32.970512"
     inkscape:cy="181.09623"
     inkscape:window-x="0"
     inkscape:window-y="26"
     inkscape:window-maximized="1"
     inkscape:current-layer="layer3"
     fit-margin-top="0"
     fit-margin-left="0"
     fit-margin-right="0"
     fit-margin-bottom="0" />
  <g
     inkscape:groupmode="layer"
     id="layer2"
     inkscape:label="fond"
     transform="translate(0,5.0846004)">
    <rect
       style="opacity:1;fill:#084ce6;fill-opacity:0.7118644;stroke:none;stroke-width:7.75870132;stroke-linecap:round;stroke-linejoin:round;stroke-miterlimit:4;stroke-dasharray:none;stroke-dashoffset:0;stroke-opacity:1"
       id="rect4503"
       width="337.28799"
       height="337.28799"
       x="0"
       y="-5.0846004"
       ry="0.18025129" />
  </g>
  <g
     inkscape:groupmode="layer"
     id="layer1"
     inkscape:label="texte"
     style="display:none"
     transform="translate(0,5.0846004)">
    <flowRoot
       xml:space="preserve"
       id="flowRoot4505"
       style="font-style:normal;font-variant:normal;font-weight:normal;font-stretch:normal;font-size:26.66666603px;line-height:1.25;font-family:'IBM Plex Mono';-inkscape-font-specification:'IBM Plex Mono';text-align:center;letter-spacing:0px;word-spacing:0px;text-anchor:middle;fill:#000000;fill-opacity:1;stroke:#ffffff;stroke-width:0.89999998;stroke-miterlimit:4;stroke-dasharray:none;stroke-opacity:1"
       transform="translate(-329.53249,284.23729)"><flowRegion
         id="flowRegion4507"
         style="font-style:normal;font-variant:normal;font-weight:normal;font-stretch:normal;font-size:26.66666603px;line-height:1.25;font-family:'IBM Plex Mono';-inkscape-font-specification:'IBM Plex Mono';stroke:#ffffff;stroke-width:0.89999998;stroke-miterlimit:4;stroke-dasharray:none;stroke-opacity:1"><rect
           id="rect4509"
           width="284.74576"
           height="101.69492"
           x="355.93219"
           y="-44.067795"
           style="font-style:normal;font-variant:normal;font-weight:normal;font-stretch:normal;font-size:26.66666603px;line-height:1.25;font-family:'IBM Plex Mono';-inkscape-font-specification:'IBM Plex Mono';stroke:#ffffff;stroke-width:0.89999998;stroke-miterlimit:4;stroke-dasharray:none;stroke-opacity:1" /></flowRegion><flowPara
         id="flowPara4511"
         style="font-style:normal;font-variant:normal;font-weight:normal;font-stretch:normal;font-size:26.66666603px;line-height:1.25;font-family:'IBM Plex Mono';-inkscape-font-specification:'IBM Plex Mono';fill:#ffffff;stroke:#ffffff;stroke-width:0.89999998;stroke-miterlimit:4;stroke-dasharray:none;stroke-opacity:1">Adhérer</flowPara></flowRoot>  </g>
  <g
     inkscape:groupmode="layer"
     id="layer3"
     inkscape:label="logo"
     transform="translate(0,5.0846004)">
    <path
       style="fill:none;fill-opacity:1;stroke:#000000;stroke-width:10.79123878;stroke-linecap:butt;stroke-linejoin:miter;stroke-miterlimit:4;stroke-dasharray:none;stroke-opacity:1"
       d="m 237.01969,140.52073 c 0.0436,7.0868 0.40078,53.20804 0,79.5744 -0.26312,17.3107 -9.5605,22.6011 -23.15971,22.56587 -27.74895,-0.0719 -75.4902,-0.0797 -103.32795,0 -11.480771,0.0329 -10.34466,-8.3979 -10.37727,-13.34645 -0.0681,-10.33178 -0.207131,-15.36967 2.65736,-23.47155 3.1652,-8.95238 9.78517,-9.76763 13.65829,-6.53223 23.80442,19.88492 39.83647,0.31192 39.616,-12.78204 -0.22047,-13.09396 -15.16558,-33.93958 -40.20983,-12.15919 -3.0792,2.67791 -9.80935,-0.94528 -11.28294,-4.75071 -3.41994,-8.83172 -3.13935,-23.5355 -0.59384,-33.25498 1.3039,-4.97869 2.64004,-10.75367 14.25213,-5.93838 12.64962,5.24554 29.83406,10.93227 40.97488,2.96919 3.16391,-2.26147 5.56857,-8.39025 2.96919,-11.28294 -21.25183,-23.649899 -1.22118,-37.552184 13.45764,-37.653622 14.67882,-0.101465 31.76323,17.129952 11.48359,39.435142 -2.62297,2.88495 1.2082,9.06014 4.75071,10.6891 11.16624,5.13458 22.89999,4.46068 34.44266,-0.59384 1.53135,-0.67057 10.591,-9.41466 10.68909,6.53223 z"
       id="path4501"
       inkscape:connector-curvature="0"
       sodipodi:nodetypes="ssssssszssssaszssss" />
  </g>
</svg>
